<?xml version="1.0" encoding="utf-8"?>
<!-- Svg Vector Icons : http://www.onlinewebfonts.com/icon -->
<!DOCTYPE svg PUBLIC "-//W3C//DTD SVG 1.1//EN" "http://www.w3.org/Graphics/SVG/1.1/DTD/svg11.dtd">
<svg version="1.1" xmlns="http://www.w3.org/2000/svg" xmlns:xlink="http://www.w3.org/1999/xlink" x="0px" y="0px" viewBox="0 0 1000 1000" enable-background="new 0 0 1000 1000" xml:space="preserve">
<metadata> Svg Vector Icons : http://www.onlinewebfonts.com/icon </metadata>
<g><g transform="translate(0.000000,511.000000) scale(0.100000,-0.100000)"><path d="M5435.4,3956.8c-90.1-23-1018.4-448.8-2637-1206.3C1425.2,2108,270.7,1569.1,232.3,1553.8C96.2,1498.2,100,1519.3,100,704.2V-28.4L146-84c28.8-34.5,86.3-67.1,151.5-88.2c191.8-59.4,347.1-216.7,397-397c24.9-88.2,24.9-297.3,0-387.4c-49.9-176.4-235.9-356.7-416.2-400.8c-51.8-13.4-101.6-44.1-130.4-78.6l-47.9-57.5v-1072v-1072.1l55.6-61.4l55.6-63.3l1729.9-5.7c1534.2-3.8,1735.6-1.9,1791.2,24.9c118.9,57.5,140,163,65.2,326c-86.3,189.9-44.1,458.4,95.9,596.4c234,235.9,680.8,163,832.3-134.3c24.9-49.8,44.1-130.4,49.9-214.8c7.7-118.9,1.9-151.5-44.1-255.1c-67.1-149.6-53.7-235.9,46-303l65.2-44.1h2332.1c1873.7,1.9,2345.5,5.7,2403,26.9c109.3,40.3,218.6,138.1,272.3,245.5l49.9,99.7V-972c0,1612.9-7.7,2466.3-21.1,2543c-26.9,161.1-107.4,397-186,554.2c-496.7,995.3-1751,1637.8-3590.1,1841.1C5765.2,4002.8,5606,4000.9,5435.4,3956.8z M6022.2,3563.6C7661.9,3394.9,8780,2873.2,9271,2048.6c78.6-130.4,161.1-327.9,180.3-423.8l11.5-65.2l-4119.5,1.9c-4000.5,0-4119.4,1.9-4044.7,36.4c42.2,19.2,991.5,462.2,2109.6,985.8c1118.1,525.5,2077,964.7,2128.8,980C5661.6,3598.2,5686.6,3598.2,6022.2,3563.6z M9497.3-1106.2V-3350H7341.6H5186l-7.7,197.5c-5.8,184.1-11.5,211-78.6,343.3c-120.8,243.6-379.7,454.5-629.1,512.1c-291.5,67.1-604.1-30.7-843.8-266.6c-195.6-193.7-297.3-439.2-281.9-682.7l5.8-103.6h-1423H502.7v820.8v820.8l63.3,30.7c199.5,95.9,437.3,383.6,514,625.2c53.7,172.6,53.7,408.5,0,581.1c-74.8,234-278.1,491-481.4,606l-95.9,53.7v475.6v473.7H5000h4497.3V-1106.2z"/><path d="M7911.2,765.6c-207.1-67.1-408.5-251.2-510.1-466c-55.6-117-61.4-147.7-61.4-303c0-153.4,7.7-186,61.4-303c82.5-174.5,247.4-339.5,421.9-421.9c118.9-55.6,147.7-61.4,312.6-61.4c168.8,0,193.7,5.8,314.5,65.2c324.1,159.2,531.2,525.5,471.8,841.9c-44.1,247.4-211,466-444.9,590.7c-128.5,67.1-155.3,72.9-312.6,78.6C8055.1,790.5,7961.1,782.8,7911.2,765.6z M8319.7,353.3c143.8-65.2,209.1-195.6,195.6-395.1c-13.4-207.1-124.7-322.2-337.5-349c-212.9-24.9-383.6,90.1-423.8,285.8c-46,218.6,30.7,387.4,209.1,464.1C8055.1,399.3,8223.8,397.4,8319.7,353.3z"/><path d="M5391.2,690.8c-245.5-92.1-420-320.3-420-550.4c0-289.6,285.7-575.3,577.3-575.3c272.3,0,542.8,255.1,567.7,535.1c19.2,209-128.5,450.7-341.4,558.1C5671.2,711.9,5487.1,727.2,5391.2,690.8z M5677,267c42.2-40.3,40.3-212.9,0-253.2c-17.3-17.3-69-36.4-117-40.3c-74.8-9.6-94-3.8-136.2,38.3c-80.5,82.5-63.3,241.7,32.6,281.9C5514,318.7,5640.5,303.4,5677,267z"/><path d="M3529-68.7c-230.1-74.8-433.4-255.1-540.8-481.4c-55.6-115.1-59.5-140-59.5-326c0-189.8,3.8-209,65.2-331.8c164.9-335.6,548.5-556.2,866.9-496.7c320.3,59.5,583,285.8,690.4,594.5c59.5,168.8,44.1,398.9-38.4,567.7C4321.1-151.1,3901.1,50.2,3529-68.7z M3974-492.5c260.8-132.3,281.9-579.2,34.5-742.2c-72.9-49.8-95.9-53.7-257-53.7c-164.9,0-182.2,3.8-258.9,57.5c-241.6,170.7-224.4,600.3,28.8,732.6C3657.5-427.3,3839.7-423.5,3974-492.5z"/><path d="M6639.7-870.3c-126.6-21.1-303-95.9-431.5-180.3c-466-312.6-621.4-887.9-368.2-1367.4c80.5-151.5,314.5-385.5,466-466.1c475.6-251.2,1056.7-95.9,1365.5,366.3c226.3,337.5,251.2,682.7,74.8,1033.7C7539.2-1067.9,7057.8-801.3,6639.7-870.3z M7055.9-1321c149.6-55.6,291.5-197.5,349.1-351c59.4-157.3,51.8-431.5-17.3-575.4c-140-287.7-483.3-421.9-824.6-318.3c-118.9,36.4-157.3,59.4-251.2,153.4c-94,94-117,132.3-153.4,251.2c-113.2,374,59.5,751.8,393.2,855.4C6681.9-1265.4,6927.4-1273.1,7055.9-1321z"/><path d="M1678.4-1401.5c-184.1-59.5-381.6-232.1-466-404.7c-134.2-276.2-78.6-565.7,151.5-797.8c61.4-59.5,157.3-130.4,222.5-161.1c97.8-47.9,138.1-55.6,278.1-57.5c138.1,0,180.3,7.7,274.2,51.8c153.4,72.9,306.9,224.4,383.6,377.8c53.7,111.2,61.4,143.8,61.4,289.6c0,136.2-7.7,180.3-51.8,274.2c-71,151.5-224.4,306.8-374,381.6C2014-1376.6,1812.6-1357.4,1678.4-1401.5z M1969.9-1798.5c105.5-26.9,172.6-97.8,203.3-212.9c65.2-241.6-122.7-448.8-364.4-408.5c-168.8,28.8-257,138.1-257,316.4c0,163,55.6,249.3,191.8,299.2C1833.7-1773.6,1864.4-1771.7,1969.9-1798.5z"/></g></g>
</svg>